Tuning Text Analysis • tune
…
This advanced example shows how to process text data with recipes and use them in a predictive model. It also has an example of extracting information from each model fit for later use.

The data are from Amazon:

“This dataset consists of reviews of fine foods from amazon. The data span a period of more than 10 years, including all ~500,000 reviews up to October 2012. Reviews include product and user information, ratings, and a plaintext review.”

A small subset of the data are contained here; we sampled a single review from 5,000 random products and 80% of these data were used as the training set. The remaining 1,000 were used as the test set.

There is a column for the product, a column for the text of the review, and a factor column for a class variable. The outcome is whether the reviewer game the product a five-star rating or not.

library(tidymodels)

data("small_fine_foods")
training_data
#> # A tibble: 4,000 x 3
#>    product    review                                                       score
#>    <chr>      <chr>                                                        <fct>
#>  1 B000J0LSBG "this stuff is  not stuffing  its  not good at all  save yo… other
#>  2 B000EYLDYE "I absolutely LOVE this dried fruit.  LOVE IT.  Whenever I … great
#>  3 B0026LIO9A "GREAT DEAL, CONVENIENT TOO.  Much cheaper than WalMart and… great
#>  4 B00473P8SK "Great flavor, we go through a ton of this sauce! I discove… great
#>  5 B001SAWTNM "This is excellent salsa/hot sauce, but you can get it for … great
#>  6 B000FAG90U "Again, this is the best dogfood out there.  One suggestion… great
#>  7 B006BXTCEK "The box I received was filled with teas, hot chocolates, a… other
#>  8 B002GWH5OY "This is delicious coffee which compares favorably with muc… great
#>  9 B003R0MFYY "Don't let these little tiny cans fool you.  They pack a lo… great
#> 10 B001EO5ZXI "One of the nicest, smoothest cup of chai I've made. Nice m… great
#> # … with 3,990 more rows
…
