…
      i Fold09: preprocessor 1/1, model 1/1
      v Fold09: preprocessor 1/1, model 1/1
      i Fold09: preprocessor 1/1, model 1/1 (extracts)
      i Fold09: preprocessor 1/1, model 1/1 (predictions)
      i Fold10: preprocessor 1/1
      v Fold10: preprocessor 1/1
      i Fold10: preprocessor 1/1, model 1/1
      v Fold10: preprocessor 1/1, model 1/1
      i Fold10: preprocessor 1/1, model 1/1 (extracts)
      i Fold10: preprocessor 1/1, model 1/1 (predictions)
      v Estimating performance
    Output
      # Tuning results
      # 10-fold cross-validation 
      # A tibble: 30 x 5
         splits         id     .metrics         .notes           .iter
         <list>         <chr>  <list>           <list>           <int>
       1 <split [28/4]> Fold01 <tibble [4 x 5]> <tibble [0 x 4]>     0
       2 <split [28/4]> Fold02 <tibble [4 x 5]> <tibble [0 x 4]>     0
       3 <split [29/3]> Fold03 <tibble [4 x 5]> <tibble [0 x 4]>     0
       4 <split [29/3]> Fold04 <tibble [4 x 5]> <tibble [0 x 4]>     0
       5 <split [29/3]> Fold05 <tibble [4 x 5]> <tibble [0 x 4]>     0
       6 <split [29/3]> Fold06 <tibble [4 x 5]> <tibble [0 x 4]>     0
       7 <split [29/3]> Fold07 <tibble [4 x 5]> <tibble [0 x 4]>     0
       8 <split [29/3]> Fold08 <tibble [4 x 5]> <tibble [0 x 4]>     0
       9 <split [29/3]> Fold09 <tibble [4 x 5]> <tibble [0 x 4]>     0
      10 <split [29/3]> Fold10 <tibble [4 x 5]> <tibble [0 x 4]>     0
      # i 20 more rows
…
      -- Iteration 2 -----------------------------------------------------------------
      
      i Current best:		rmse=2.453 (@iter 1)
      i Gaussian process model
      v Gaussian process model
      i Generating 2 candidates
      i Predicted candidates
      i num_comp=1
      i Estimating performance
      v Estimating performance
      (x) Newest results:	rmse=2.646 (+/-0.286)
    Output
      # Tuning results
      # 10-fold cross-validation 
      # A tibble: 30 x 5
         splits         id     .metrics         .notes           .iter
         <list>         <chr>  <list>           <list>           <int>
       1 <split [28/4]> Fold01 <tibble [4 x 5]> <tibble [0 x 4]>     0
       2 <split [28/4]> Fold02 <tibble [4 x 5]> <tibble [0 x 4]>     0
       3 <split [29/3]> Fold03 <tibble [4 x 5]> <tibble [0 x 4]>     0
       4 <split [29/3]> Fold04 <tibble [4 x 5]> <tibble [0 x 4]>     0
       5 <split [29/3]> Fold05 <tibble [4 x 5]> <tibble [0 x 4]>     0
       6 <split [29/3]> Fold06 <tibble [4 x 5]> <tibble [0 x 4]>     0
       7 <split [29/3]> Fold07 <tibble [4 x 5]> <tibble [0 x 4]>     0
       8 <split [29/3]> Fold08 <tibble [4 x 5]> <tibble [0 x 4]>     0
       9 <split [29/3]> Fold09 <tibble [4 x 5]> <tibble [0 x 4]>     0
      10 <split [29/3]> Fold10 <tibble [4 x 5]> <tibble [0 x 4]>     0
      # i 20 more rows
…
      v Fold09: preprocessor 1/1, model 1/1
      i Fold09: preprocessor 1/1, model 1/1 (extracts)
      i Fold09: preprocessor 1/1, model 1/1 (predictions)
      i Fold10: preprocessor 1/1
      v Fold10: preprocessor 1/1
      i Fold10: preprocessor 1/1, model 1/1
      v Fold10: preprocessor 1/1, model 1/1
      i Fold10: preprocessor 1/1, model 1/1 (extracts)
      i Fold10: preprocessor 1/1, model 1/1 (predictions)
      v Estimating performance
      (x) Newest results:	rmse=2.646 (+/-0.286)
    Output
      # Tuning results
      # 10-fold cross-validation 
      # A tibble: 30 x 5
         splits         id     .metrics         .notes           .iter
         <list>         <chr>  <list>           <list>           <int>
       1 <split [28/4]> Fold01 <tibble [4 x 5]> <tibble [0 x 4]>     0
       2 <split [28/4]> Fold02 <tibble [4 x 5]> <tibble [0 x 4]>     0
       3 <split [29/3]> Fold03 <tibble [4 x 5]> <tibble [0 x 4]>     0
       4 <split [29/3]> Fold04 <tibble [4 x 5]> <tibble [0 x 4]>     0
       5 <split [29/3]> Fold05 <tibble [4 x 5]> <tibble [0 x 4]>     0
       6 <split [29/3]> Fold06 <tibble [4 x 5]> <tibble [0 x 4]>     0
       7 <split [29/3]> Fold07 <tibble [4 x 5]> <tibble [0 x 4]>     0
       8 <split [29/3]> Fold08 <tibble [4 x 5]> <tibble [0 x 4]>     0
       9 <split [29/3]> Fold09 <tibble [4 x 5]> <tibble [0 x 4]>     0
      10 <split [29/3]> Fold10 <tibble [4 x 5]> <tibble [0 x 4]>     0
      # i 20 more rows
…
