…
---

    Code
      filter_parameters(svm_reg_results, parameters = tibble::tibble(`%^*#` = 1,
        soup = 2))
    Warning <rlang_warning>
      There are unneeded columns in `parameters` that were ignored: 'soup'
    Output
      # Tuning results
      # 10-fold cross-validation repeated 5 times 
      # A tibble: 50 x 6
         splits           id      id2    .metrics          .notes   .predictions      
         <list>           <chr>   <chr>  <list>            <list>   <list>            
       1 <split [711/80]> Repeat1 Fold01 <tibble [30 x 7]> <tibble> <tibble [800 x 7]>
       2 <split [712/79]> Repeat1 Fold02 <tibble [30 x 7]> <tibble> <tibble [790 x 7]>
       3 <split [712/79]> Repeat1 Fold03 <tibble [30 x 7]> <tibble> <tibble [790 x 7]>
       4 <split [712/79]> Repeat1 Fold04 <tibble [30 x 7]> <tibble> <tibble [790 x 7]>
       5 <split [712/79]> Repeat1 Fold05 <tibble [30 x 7]> <tibble> <tibble [790 x 7]>
       6 <split [712/79]> Repeat1 Fold06 <tibble [30 x 7]> <tibble> <tibble [790 x 7]>
       7 <split [712/79]> Repeat1 Fold07 <tibble [30 x 7]> <tibble> <tibble [790 x 7]>
       8 <split [712/79]> Repeat1 Fold08 <tibble [30 x 7]> <tibble> <tibble [790 x 7]>
       9 <split [712/79]> Repeat1 Fold09 <tibble [30 x 7]> <tibble> <tibble [790 x 7]>
      10 <split [712/79]> Repeat1 Fold10 <tibble [30 x 7]> <tibble> <tibble [790 x 7]>
      # ... with 40 more rows
