Getting Started with tune • tune
…
The .metrics column has all of the holdout performance estimates2 for each parameter combination:

ames_res$.metrics[[1]]
#> # A tibble: 162 × 6
#>    `long df` `lat df` .metric .estimator .estimate .config              
#>        <dbl>    <dbl> <chr>   <chr>          <dbl> <chr>                
#>  1         2        2 rmse    standard      0.0985 Preprocessor01_Model1
#>  2         2        2 rsq     standard      0.683  Preprocessor01_Model1
#>  3         4        2 rmse    standard      0.0985 Preprocessor02_Model1
#>  4         4        2 rsq     standard      0.683  Preprocessor02_Model1
#>  5         6        2 rmse    standard      0.0973 Preprocessor03_Model1
#>  6         6        2 rsq     standard      0.690  Preprocessor03_Model1
#>  7         8        2 rmse    standard      0.0962 Preprocessor04_Model1
#>  8         8        2 rsq     standard      0.697  Preprocessor04_Model1
#>  9        10        2 rmse    standard      0.0960 Preprocessor05_Model1
#> 10        10        2 rsq     standard      0.699  Preprocessor05_Model1
#> # … with 152 more rows

To get the average metric value for each parameter combination, collect_metrics() can be put to use:

estimates <- collect_metrics(ames_res)
estimates
#> # A tibble: 162 × 8
#>    `long df` `lat df` .metric .estimator   mean     n std_err .config           
#>        <dbl>    <dbl> <chr>   <chr>       <dbl> <int>   <dbl> <chr>             
#>  1         2        2 rmse    standard   0.100     10 0.00145 Preprocessor01_Mo…
#>  2         2        2 rsq     standard   0.674     10 0.00777 Preprocessor01_Mo…
#>  3         4        2 rmse    standard   0.100     10 0.00153 Preprocessor02_Mo…
#>  4         4        2 rsq     standard   0.675     10 0.00814 Preprocessor02_Mo…
#>  5         6        2 rmse    standard   0.0994    10 0.00161 Preprocessor03_Mo…
#>  6         6        2 rsq     standard   0.680     10 0.00885 Preprocessor03_Mo…
#>  7         8        2 rmse    standard   0.0989    10 0.00159 Preprocessor04_Mo…
#>  8         8        2 rsq     standard   0.684     10 0.00946 Preprocessor04_Mo…
#>  9        10        2 rmse    standard   0.0990    10 0.00165 Preprocessor05_Mo…
#> 10        10        2 rsq     standard   0.683     10 0.0101  Preprocessor05_Mo…
#> # … with 152 more rows

The values in the mean column are the averages of the 10 resamples. The best RMSE values corresponded to:

rmse_vals <- 
  estimates %>% 
  dplyr::filter(.metric == "rmse") %>% 
  arrange(mean)
rmse_vals
#> # A tibble: 81 × 8
#>    `long df` `lat df` .metric .estimator   mean     n std_err .config           
#>        <dbl>    <dbl> <chr>   <chr>       <dbl> <int>   <dbl> <chr>             
#>  1        16       12 rmse    standard   0.0948    10 0.00120 Preprocessor53_Mo…
#>  2        18       12 rmse    standard   0.0948    10 0.00121 Preprocessor54_Mo…
#>  3        16        8 rmse    standard   0.0949    10 0.00118 Preprocessor35_Mo…
#>  4        16       10 rmse    standard   0.0949    10 0.00118 Preprocessor44_Mo…
#>  5        16       18 rmse    standard   0.0949    10 0.00119 Preprocessor80_Mo…
#>  6        16       16 rmse    standard   0.0949    10 0.00122 Preprocessor71_Mo…
#>  7        18       10 rmse    standard   0.0949    10 0.00119 Preprocessor45_Mo…
#>  8        18        8 rmse    standard   0.0949    10 0.00119 Preprocessor36_Mo…
#>  9        18       18 rmse    standard   0.0950    10 0.00120 Preprocessor81_Mo…
#> 10        16       14 rmse    standard   0.0950    10 0.00117 Preprocessor62_Mo…
#> # … with 71 more rows
…
