…
The `.metrics` column has all of the holdout performance
estimates[²](#fn2) for each parameter combination:

``` r
ames_res$.metrics[[1]]
#> # A tibble: 162 × 6
#>    `long df` `lat df` .metric .estimator .estimate .config         
#>        <dbl>    <dbl> <chr>   <chr>          <dbl> <chr>           
#>  1         2        2 rmse    standard      0.0985 pre01_mod0_post0
#>  2         2        2 rsq     standard      0.683  pre01_mod0_post0
#>  3         2        4 rmse    standard      0.0970 pre02_mod0_post0
#>  4         2        4 rsq     standard      0.693  pre02_mod0_post0
#>  5         2        6 rmse    standard      0.0959 pre03_mod0_post0
#>  6         2        6 rsq     standard      0.702  pre03_mod0_post0
#>  7         2        8 rmse    standard      0.0925 pre04_mod0_post0
#>  8         2        8 rsq     standard      0.724  pre04_mod0_post0
#>  9         2       10 rmse    standard      0.0918 pre05_mod0_post0
#> 10         2       10 rsq     standard      0.728  pre05_mod0_post0
#> # ℹ 152 more rows
```

To get the average metric value for each parameter combination,
[`collect_metrics()`](https://tune.tidymodels.org/dev/reference/collect_predictions.md)
can be put to use:

``` r
estimates <- collect_metrics(ames_res)
estimates
#> # A tibble: 162 × 8
#>    `long df` `lat df` .metric .estimator   mean     n std_err .config  
#>        <dbl>    <dbl> <chr>   <chr>       <dbl> <int>   <dbl> <chr>    
#>  1         2        2 rmse    standard   0.100     10 0.00145 pre01_mo…
#>  2         2        2 rsq     standard   0.674     10 0.00777 pre01_mo…
#>  3         2        4 rmse    standard   0.0996    10 0.00137 pre02_mo…
#>  4         2        4 rsq     standard   0.680     10 0.00675 pre02_mo…
#>  5         2        6 rmse    standard   0.0987    10 0.00127 pre03_mo…
#>  6         2        6 rsq     standard   0.686     10 0.00734 pre03_mo…
#>  7         2        8 rmse    standard   0.0966    10 0.00122 pre04_mo…
#>  8         2        8 rsq     standard   0.699     10 0.00662 pre04_mo…
#>  9         2       10 rmse    standard   0.0965    10 0.00117 pre05_mo…
#> 10         2       10 rsq     standard   0.700     10 0.00661 pre05_mo…
#> # ℹ 152 more rows
```

The values in the `mean` column are the averages of the 10 resamples.
The best RMSE values corresponded to:

``` r
rmse_vals <- 
  estimates |> 
  dplyr::filter(.metric == "rmse") |> 
  arrange(mean)
rmse_vals
#> # A tibble: 81 × 8
#>    `long df` `lat df` .metric .estimator   mean     n std_err .config  
#>        <dbl>    <dbl> <chr>   <chr>       <dbl> <int>   <dbl> <chr>    
#>  1        16       12 rmse    standard   0.0948    10 0.00120 pre69_mo…
#>  2        18       12 rmse    standard   0.0948    10 0.00121 pre78_mo…
#>  3        16        8 rmse    standard   0.0949    10 0.00118 pre67_mo…
#>  4        16       10 rmse    standard   0.0949    10 0.00118 pre68_mo…
#>  5        16       18 rmse    standard   0.0949    10 0.00119 pre72_mo…
#>  6        16       16 rmse    standard   0.0949    10 0.00122 pre71_mo…
#>  7        18       10 rmse    standard   0.0949    10 0.00119 pre77_mo…
#>  8        18        8 rmse    standard   0.0949    10 0.00119 pre76_mo…
#>  9        18       18 rmse    standard   0.0950    10 0.00120 pre81_mo…
#> 10        16       14 rmse    standard   0.0950    10 0.00117 pre70_mo…
#> # ℹ 71 more rows
```
…
![A ggplot2 dot plot. The x axis plots iterations, ranging from 0 to 20,
and the y axis plots root mean squared error. After iteration 0, each
point has error bars for the metric value. Generally, the error
decreases as the iteration
increases.](tune_files/figure-html/bo-iter-1.png)

The best results here were:

``` r
collect_metrics(knn_search) |> 
  dplyr::filter(.metric == "rmse") |> 
  arrange(mean)
#> # A tibble: 25 × 11
#>    neighbors weight_func `long df` `lat df` .metric .estimator   mean
#>        <int> <chr>           <int>    <int> <chr>   <chr>       <dbl>
#>  1         9 inv                 5        5 rmse    standard   0.0814
#>  2         7 inv                 6        5 rmse    standard   0.0821
#>  3        10 inv                 6        6 rmse    standard   0.0824
#>  4         7 inv                 6        7 rmse    standard   0.0825
#>  5         5 inv                 5        6 rmse    standard   0.0825
#>  6        11 gaussian            5        6 rmse    standard   0.0826
#>  7        11 inv                 2        6 rmse    standard   0.0829
#>  8         5 gaussian            8        5 rmse    standard   0.0829
#>  9         5 inv                 2        6 rmse    standard   0.0832
#> 10         5 gaussian            8        6 rmse    standard   0.0832
#> # ℹ 15 more rows
#> # ℹ 4 more variables: n <int>, std_err <dbl>, .config <chr>,
#> #   .iter <int>
```
…
