Classification Example • tune
…
The resulting tibble is a stacked set of rows of the rsample object with an additional column for the iteration number:

search_res
#> #  10-fold cross-validation repeated 2 times 
#> # A tibble: 620 x 5
#>    splits             id      id2    .metrics         .iter
#>  * <list>             <chr>   <chr>  <list>           <dbl>
#>  1 <split [1.4K/152]> Repeat1 Fold01 <tibble [5 × 6]>     0
#>  2 <split [1.4K/152]> Repeat1 Fold02 <tibble [5 × 6]>     0
#>  3 <split [1.4K/152]> Repeat1 Fold03 <tibble [5 × 6]>     0
#>  4 <split [1.4K/152]> Repeat1 Fold04 <tibble [5 × 6]>     0
#>  5 <split [1.4K/152]> Repeat1 Fold05 <tibble [5 × 6]>     0
#>  6 <split [1.4K/151]> Repeat1 Fold06 <tibble [5 × 6]>     0
#>  7 <split [1.4K/151]> Repeat1 Fold07 <tibble [5 × 6]>     0
#>  8 <split [1.4K/151]> Repeat1 Fold08 <tibble [5 × 6]>     0
#>  9 <split [1.4K/151]> Repeat1 Fold09 <tibble [5 × 6]>     0
#> 10 <split [1.4K/151]> Repeat1 Fold10 <tibble [5 × 6]>     0
#> # … with 610 more rows

As with grid search, we can summarize the results over resamples:

estimates <- summarize(search_res) %>% arrange(.iter)
estimates
#> # A tibble: 35 x 9
#>        cost rbf_sigma num_comp .iter .metric .estimator  mean     n std_err
#>       <dbl>     <dbl>    <int> <dbl> <chr>   <chr>      <dbl> <int>   <dbl>
#>  1  0.00701  1.71e- 9       12     0 roc_auc binary     0.790    20 0.0339 
#>  2  0.0446   3.53e- 4        5     0 roc_auc binary     0.862    20 0.00720
#>  3  0.323    3.21e- 8       15     0 roc_auc binary     0.861    20 0.00706
#>  4  2.53     7.00e- 6       20     0 roc_auc binary     0.865    20 0.00695
#>  5 10.0      1.56e- 2        6     0 roc_auc binary     0.878    20 0.00745
#>  6  0.00283  1.71e-10        7     1 roc_auc binary     0.793    20 0.0341 
#>  7  0.633    7.82e- 1        7     2 roc_auc binary     0.865    20 0.00767
#>  8 31.4      7.15e- 2        1     3 roc_auc binary     0.749    20 0.0110 
#>  9  3.37     1.87e- 6       17     4 roc_auc binary     0.860    20 0.00741
#> 10  0.00739  1.03e-10       18     5 roc_auc binary     0.789    20 0.0338 
#> # … with 25 more rows
…
