Optimizations and Parallel Processing • tune
…
knn_mod <- 
  nearest_neighbor(neighbors = tune(), weight_func = tune()) %>% 
  set_engine("kknn") %>% 
  set_mode("regression")

grid <- 
  parameters(num_terms(c(1, 9)), neighbors(), weight_func()) %>% 
  grid_regular(levels = c(5, 10, 7)) %>% 
  arrange(num_terms, neighbors, weight_func)
grid 

## # A tibble: 350 x 3
##    num_terms neighbors weight_func 
##  *     <int>     <int> <chr>       
##  1         1         1 biweight    
##  2         1         1 cos         
##  3         1         1 epanechnikov
##  4         1         1 inv         
##  5         1         1 rectangular 
##  6         1         1 triangular  
##  7         1         1 triweight   
##  8         1         2 biweight    
##  9         1         2 cos         
## 10         1         2 epanechnikov
## # … with 340 more rows
…
tune_grid() determines when this occurs and fits all 70 candidate models for each unique configuration of the recipe. In essence, it nests the model parameters inside the unique parameters of the recipe:

## # A tibble: 5 x 2
##   num_terms data             
## *     <int> <list>           
## 1         1 <tibble [70 × 2]>
## 2         3 <tibble [70 × 2]>
## 3         5 <tibble [70 × 2]>
## 4         7 <tibble [70 × 2]>
## 5         9 <tibble [70 × 2]>

Only 5 recipes are prepared and, within each, all of the appropriate models are fit from the same recipe. In this example, once the recipe with num_terms = 1 is created, the model parameters are iteratively tuned:

## # A tibble: 70 x 2
##    neighbors weight_func 
##  *     <int> <chr>       
##  1         1 biweight    
##  2         1 cos         
##  3         1 epanechnikov
##  4         1 inv         
##  5         1 rectangular 
##  6         1 triangular  
##  7         1 triweight   
##  8         2 biweight    
##  9         2 cos         
## 10         2 epanechnikov
## # … with 60 more rows
…
