Classification Example • tune
…
The resulting tibble is a stacked set of rows of the rsample object with an additional column for the iteration number:

search_res
#> #  10-fold cross-validation repeated 2 times 
#> # A tibble: 620 x 6
#>    splits             id      id2    .metrics         .notes           .iter
#>  * <list>             <chr>   <chr>  <list>           <list>           <dbl>
#>  1 <split [1.4K/152]> Repeat1 Fold01 <tibble [3 × 6]> <tibble [0 × 1]>     0
#>  2 <split [1.4K/152]> Repeat1 Fold02 <tibble [3 × 6]> <tibble [0 × 1]>     0
#>  3 <split [1.4K/152]> Repeat1 Fold03 <tibble [3 × 6]> <tibble [0 × 1]>     0
#>  4 <split [1.4K/152]> Repeat1 Fold04 <tibble [3 × 6]> <tibble [0 × 1]>     0
#>  5 <split [1.4K/152]> Repeat1 Fold05 <tibble [3 × 6]> <tibble [0 × 1]>     0
#>  6 <split [1.4K/151]> Repeat1 Fold06 <tibble [3 × 6]> <tibble [0 × 1]>     0
#>  7 <split [1.4K/151]> Repeat1 Fold07 <tibble [3 × 6]> <tibble [0 × 1]>     0
#>  8 <split [1.4K/151]> Repeat1 Fold08 <tibble [3 × 6]> <tibble [0 × 1]>     0
#>  9 <split [1.4K/151]> Repeat1 Fold09 <tibble [3 × 6]> <tibble [0 × 1]>     0
#> 10 <split [1.4K/151]> Repeat1 Fold10 <tibble [3 × 6]> <tibble [0 × 1]>     0
#> # … with 610 more rows

As with grid search, we can summarize the results over resamples:

estimates <- collect_metrics(search_res) %>% arrange(.iter)
estimates
#> # A tibble: 33 x 9
#>        cost rbf_sigma num_comp .iter .metric .estimator  mean     n std_err
#>       <dbl>     <dbl>    <int> <dbl> <chr>   <chr>      <dbl> <int>   <dbl>
#>  1  0.00849  1.24e- 2       15     0 roc_auc binary     0.865    20 0.00711
#>  2  0.0945   2.38e- 9       13     0 roc_auc binary     0.862    20 0.00734
#>  3 13.7      3.51e- 4        5     0 roc_auc binary     0.862    20 0.00714
#>  4  0.00382  5.23e- 6        3     1 roc_auc binary     0.852    20 0.00759
#>  5 30.3      1.20e-10       20     2 roc_auc binary     0.865    20 0.00694
#>  6  0.0210   9.96e- 1        3     3 roc_auc binary     0.856    20 0.00732
#>  7  0.00168  1.67e-10       20     4 roc_auc binary     0.792    20 0.0340 
#>  8  0.00100  1.27e- 9        8     5 roc_auc binary     0.792    20 0.0341 
#>  9  0.350    2.28e- 6        3     6 roc_auc binary     0.852    20 0.00759
#> 10  1.08     9.17e- 1       19     7 roc_auc binary     0.748    20 0.0117 
#> # … with 23 more rows
…
