Text Analysis Example • tune
…
The data are from Amazon:

“This dataset consists of reviews of fine foods from amazon. The data span a period of more than 10 years, including all ~500,000 reviews up to October 2012. Reviews include product and user information, ratings, and a plaintext review.”

A small subset of the data are contained here; we sampled a single review from 5,000 random products and 80% of these data were used as the training set. The remaining 1,000 were used as the test set.

There is a column for the product, a column for the text of the review, and a factor column for a class variable. The outcome is whether the reviewer game the product a five-star rating or not.

library(tidymodels)
library(tune)
library(modeldata)

data("small_fine_foods")
training_data
#> # A tibble: 4,000 x 3
#>    product    review                                                       score
#>    <chr>      <chr>                                                        <fct>
#>  1 B000J0LSBG "this stuff is  not stuffing  its  not good at all  save yo… other
#>  2 B000EYLDYE "I absolutely LOVE this dried fruit.  LOVE IT.  Whenever I … great
#>  3 B0026LIO9A "GREAT DEAL, CONVENIENT TOO.  Much cheaper than WalMart and… great
#>  4 B00473P8SK "Great flavor, we go through a ton of this sauce! I discove… great
#>  5 B001SAWTNM "This is excellent salsa/hot sauce, but you can get it for … great
#>  6 B000FAG90U "Again, this is the best dogfood out there.  One suggestion… great
#>  7 B006BXTCEK "The box I received was filled with teas, hot chocolates, a… other
#>  8 B002GWH5OY "This is delicious coffee which compares favorably with muc… great
#>  9 B003R0MFYY "Don't let these little tiny cans fool you.  They pack a lo… great
#> 10 B001EO5ZXI "One of the nicest, smoothest cup of chai I've made. Nice m… great
#> # … with 3,990 more rows
…
roc_scores <- metric_set(roc_auc)

set.seed(1559)
five_star_glmnet <-
  tune_grid(lr_mod, pre_proc, resamples = folds, grid = five_star_grid,
            metrics = roc_scores, control = ctrl)

This took a while to complete. What did the results look like? Let’s get the resampling estimates of the area under the ROC curve for each tuning parameter:

grid_roc <-
  collect_metrics(five_star_glmnet) %>%
  arrange(desc(mean))
grid_roc
#> # A tibble: 300 x 8
#>    penalty mixture num_terms .metric .estimator  mean     n std_err
#>      <dbl>   <dbl>     <dbl> <chr>   <chr>      <dbl> <int>   <dbl>
#>  1 0.0379     0.25      4096 roc_auc binary     0.816    10 0.00753
#>  2 0.0183     0.5       4096 roc_auc binary     0.814    10 0.00776
#>  3 0.0127     0.75      4096 roc_auc binary     0.814    10 0.00781
#>  4 0.00886    1         4096 roc_auc binary     0.813    10 0.00795
#>  5 0.0264     0.25      4096 roc_auc binary     0.813    10 0.00791
#>  6 0.0546     0.25      4096 roc_auc binary     0.811    10 0.00805
#>  7 0.0127     0.5       4096 roc_auc binary     0.811    10 0.00810
#>  8 0.00886    0.75      4096 roc_auc binary     0.810    10 0.00803
#>  9 0.0264     0.5       4096 roc_auc binary     0.810    10 0.00813
#> 10 0.0127     1         4096 roc_auc binary     0.810    10 0.00808
#> # … with 290 more rows
…
More nested tibbles! Let’s unnest five_star_glmnet$.extracts:

library(tidyr)
extracted <-
  five_star_glmnet %>%
  dplyr::select(id, .extracts) %>%
  unnest(cols = .extracts)
extracted
#> # A tibble: 150 x 5
#>    id     num_terms penalty mixture .extracts         
#>    <chr>      <dbl>   <dbl>   <dbl> <list>            
#>  1 Fold01       256       1    0    <tibble [100 × 2]>
#>  2 Fold01       256       1    0.25 <tibble [89 × 2]> 
#>  3 Fold01       256       1    0.5  <tibble [82 × 2]> 
#>  4 Fold01       256       1    0.75 <tibble [79 × 2]> 
#>  5 Fold01       256       1    1    <tibble [76 × 2]> 
#>  6 Fold01      1024       1    0    <tibble [100 × 2]>
#>  7 Fold01      1024       1    0.25 <tibble [100 × 2]>
#>  8 Fold01      1024       1    0.5  <tibble [100 × 2]>
#>  9 Fold01      1024       1    0.75 <tibble [99 × 2]> 
#> 10 Fold01      1024       1    1    <tibble [95 × 2]> 
#> # … with 140 more rows
…
Now we can get at the results that we want using another unnest:

extracted <-
  extracted %>%
  unnest(col = .extracts) # <- these contain a `penalty` column
extracted
#> # A tibble: 1,000 x 5
#>    id     num_terms mixture penalty num_vars
#>    <chr>      <dbl>   <dbl>   <dbl>    <int>
#>  1 Fold01      4096    0.25   0.360        0
#>  2 Fold01      4096    0.25   0.344        1
#>  3 Fold01      4096    0.25   0.328        2
#>  4 Fold01      4096    0.25   0.313        2
#>  5 Fold01      4096    0.25   0.299        3
#>  6 Fold01      4096    0.25   0.286        3
#>  7 Fold01      4096    0.25   0.273        4
#>  8 Fold01      4096    0.25   0.260        5
#>  9 Fold01      4096    0.25   0.248        7
#> 10 Fold01      4096    0.25   0.237        7
#> # … with 990 more rows
…
