Example Analysis of Ames Housing Data — example_ames_knn • tune
…
#> # Tuning results
#> # 10-fold cross-validation using stratification 
#> # A tibble: 110 x 5
#>    splits         id     .metrics          .notes           .iter
#>    <list>         <chr>  <list>            <list>           <int>
#>  1 <split [2K/1]> Fold01 <tibble [20 × 9]> <tibble [0 × 1]>     0
#>  2 <split [2K/1]> Fold02 <tibble [20 × 9]> <tibble [0 × 1]>     0
#>  3 <split [2K/1]> Fold03 <tibble [20 × 9]> <tibble [0 × 1]>     0
#>  4 <split [2K/1]> Fold04 <tibble [20 × 9]> <tibble [0 × 1]>     0
#>  5 <split [2K/1]> Fold05 <tibble [20 × 9]> <tibble [0 × 1]>     0
#>  6 <split [2K/2]> Fold06 <tibble [20 × 9]> <tibble [0 × 1]>     0
#>  7 <split [2K/1]> Fold07 <tibble [20 × 9]> <tibble [0 × 1]>     0
#>  8 <split [2K/1]> Fold08 <tibble [20 × 9]> <tibble [0 × 1]>     0
#>  9 <split [2K/1]> Fold09 <tibble [20 × 9]> <tibble [0 × 1]>     0
#> 10 <split [2K/1]> Fold10 <tibble [20 × 9]> <tibble [0 × 1]>     0
#> # … with 100 more rows
…
