Obtain and format results produced by tuning functions — collect_predictions • tune
…
# Per-resample values
collect_metrics(ames_grid_search, summarize = FALSE)
#> # A tibble: 200 × 10
#>    id         K weight_func dist_power   lon   lat .metric .estimator .estimate
#>    <chr>  <int> <chr>            <dbl> <int> <int> <chr>   <chr>          <dbl>
#>  1 Fold01    35 optimal           1.32     8     1 rmse    standard      0.0859
#>  2 Fold01    35 optimal           1.32     8     1 rsq     standard      0.810 
#>  3 Fold02    35 optimal           1.32     8     1 rmse    standard      0.0722
#>  4 Fold02    35 optimal           1.32     8     1 rsq     standard      0.845 
#>  5 Fold03    35 optimal           1.32     8     1 rmse    standard      0.0661
#>  6 Fold03    35 optimal           1.32     8     1 rsq     standard      0.842 
#>  7 Fold04    35 optimal           1.32     8     1 rmse    standard      0.0741
#>  8 Fold04    35 optimal           1.32     8     1 rsq     standard      0.847 
#>  9 Fold05    35 optimal           1.32     8     1 rmse    standard      0.0964
#> 10 Fold05    35 optimal           1.32     8     1 rsq     standard      0.731 
#> # … with 190 more rows, and 1 more variable: .config <chr>
…
spline_rec <-
  recipe(mpg ~ ., data = mtcars) %>%
  step_ns(disp, deg_free = tune("df"))

grid <- tibble(df = 3:6)

resampled <-
lm_mod %>%
tune_grid(spline_rec, resamples = car_folds, control = ctrl, grid = grid)

collect_predictions(resampled) %>% arrange(.row)
#> # A tibble: 384 × 7
#>    id      id2   .pred  .row    df   mpg .config             
#>    <chr>   <chr> <dbl> <int> <int> <dbl> <chr>               
#>  1 Repeat1 Fold2  16.5     1     3    21 Preprocessor1_Model1
#>  2 Repeat2 Fold1  19.0     1     3    21 Preprocessor1_Model1
#>  3 Repeat3 Fold1  20.0     1     3    21 Preprocessor1_Model1
#>  4 Repeat1 Fold2  15.1     1     4    21 Preprocessor2_Model1
#>  5 Repeat2 Fold1  17.7     1     4    21 Preprocessor2_Model1
#>  6 Repeat3 Fold1  20.1     1     4    21 Preprocessor2_Model1
#>  7 Repeat1 Fold2  17.9     1     5    21 Preprocessor3_Model1
#>  8 Repeat2 Fold1  18.3     1     5    21 Preprocessor3_Model1
#>  9 Repeat3 Fold1  20.4     1     5    21 Preprocessor3_Model1
#> 10 Repeat1 Fold2  15.1     1     6    21 Preprocessor4_Model1
#> # … with 374 more rows
collect_predictions(resampled, summarize = TRUE) %>% arrange(.row)
#> # A tibble: 128 × 5
#>     .row    df   mpg .config              .pred
#>    <int> <int> <dbl> <chr>                <dbl>
#>  1     1     3  21   Preprocessor1_Model1  18.5
#>  2     1     4  21   Preprocessor2_Model1  17.6
#>  3     1     5  21   Preprocessor3_Model1  18.9
#>  4     1     6  21   Preprocessor4_Model1  16.7
#>  5     2     3  21   Preprocessor1_Model1  19.4
#>  6     2     4  21   Preprocessor2_Model1  19.0
#>  7     2     5  21   Preprocessor3_Model1  18.7
#>  8     2     6  21   Preprocessor4_Model1  16.4
#>  9     3     3  22.8 Preprocessor1_Model1  31.8
#> 10     3     4  22.8 Preprocessor2_Model1  23.8
#> # … with 118 more rows
collect_predictions(resampled, summarize = TRUE, grid[1,]) %>% arrange(.row)
#> # A tibble: 32 × 5
#>     .row    df   mpg .config              .pred
#>    <int> <int> <dbl> <chr>                <dbl>
#>  1     1     3  21   Preprocessor1_Model1  18.5
#>  2     2     3  21   Preprocessor1_Model1  19.4
#>  3     3     3  22.8 Preprocessor1_Model1  31.8
#>  4     4     3  21.4 Preprocessor1_Model1  20.2
#>  5     5     3  18.7 Preprocessor1_Model1  18.4
#>  6     6     3  18.1 Preprocessor1_Model1  20.6
#>  7     7     3  14.3 Preprocessor1_Model1  13.5
#>  8     8     3  24.4 Preprocessor1_Model1  19.2
#>  9     9     3  22.8 Preprocessor1_Model1  34.8
#> 10    10     3  19.2 Preprocessor1_Model1  16.6
#> # … with 22 more rows
…
