…
# Per-resample values
collect_metrics(ames_grid_search, summarize = FALSE)
#> # A tibble: 200 × 10
#>    id         K weight_func dist_power   lon   lat .metric .estimator
#>    <chr>  <int> <chr>            <dbl> <int> <int> <chr>   <chr>     
#>  1 Fold01    21 triweight        0.626     1     4 rmse    standard  
#>  2 Fold01    21 triweight        0.626     1     4 rsq     standard  
#>  3 Fold02    21 triweight        0.626     1     4 rmse    standard  
#>  4 Fold02    21 triweight        0.626     1     4 rsq     standard  
#>  5 Fold03    21 triweight        0.626     1     4 rmse    standard  
#>  6 Fold03    21 triweight        0.626     1     4 rsq     standard  
#>  7 Fold04    21 triweight        0.626     1     4 rmse    standard  
#>  8 Fold04    21 triweight        0.626     1     4 rsq     standard  
#>  9 Fold05    21 triweight        0.626     1     4 rmse    standard  
#> 10 Fold05    21 triweight        0.626     1     4 rsq     standard  
#> # ℹ 190 more rows
#> # ℹ 2 more variables: .estimate <dbl>, .config <chr>
…
spline_rec <-
  recipe(mpg ~ ., data = mtcars) |>
  step_spline_natural(disp, deg_free = tune("df"))

grid <- tibble(df = 3:6)

resampled <-
  lm_mod |>
  tune_grid(spline_rec, resamples = car_folds, control = ctrl, grid = grid)

collect_predictions(resampled) |> arrange(.row)
#> # A tibble: 384 × 7
#>    .pred id      id2     mpg  .row    df .config        
#>    <dbl> <chr>   <chr> <dbl> <int> <int> <chr>          
#>  1  16.5 Repeat1 Fold2    21     1     3 pre1_mod0_post0
#>  2  19.0 Repeat2 Fold1    21     1     3 pre1_mod0_post0
#>  3  20.0 Repeat3 Fold1    21     1     3 pre1_mod0_post0
#>  4  15.1 Repeat1 Fold2    21     1     4 pre2_mod0_post0
#>  5  17.7 Repeat2 Fold1    21     1     4 pre2_mod0_post0
#>  6  20.1 Repeat3 Fold1    21     1     4 pre2_mod0_post0
#>  7  17.9 Repeat1 Fold2    21     1     5 pre3_mod0_post0
#>  8  18.3 Repeat2 Fold1    21     1     5 pre3_mod0_post0
#>  9  20.4 Repeat3 Fold1    21     1     5 pre3_mod0_post0
#> 10  15.1 Repeat1 Fold2    21     1     6 pre4_mod0_post0
#> # ℹ 374 more rows
collect_predictions(resampled, summarize = TRUE) |> arrange(.row)
#> # A tibble: 128 × 5
#>    .pred   mpg  .row    df .config        
#>    <dbl> <dbl> <int> <int> <chr>          
#>  1  18.5  21       1     3 pre1_mod0_post0
#>  2  17.6  21       1     4 pre2_mod0_post0
#>  3  18.9  21       1     5 pre3_mod0_post0
#>  4  16.7  21       1     6 pre4_mod0_post0
#>  5  19.4  21       2     3 pre1_mod0_post0
#>  6  19.0  21       2     4 pre2_mod0_post0
#>  7  18.7  21       2     5 pre3_mod0_post0
#>  8  16.4  21       2     6 pre4_mod0_post0
#>  9  31.8  22.8     3     3 pre1_mod0_post0
#> 10  23.8  22.8     3     4 pre2_mod0_post0
#> # ℹ 118 more rows
collect_predictions(
  resampled,
  summarize = TRUE,
  parameters = grid[1, ]
) |> arrange(.row)
#> # A tibble: 32 × 5
#>    .pred   mpg  .row    df .config        
#>    <dbl> <dbl> <int> <int> <chr>          
#>  1  18.5  21       1     3 pre1_mod0_post0
#>  2  19.4  21       2     3 pre1_mod0_post0
#>  3  31.8  22.8     3     3 pre1_mod0_post0
#>  4  20.2  21.4     4     3 pre1_mod0_post0
#>  5  18.4  18.7     5     3 pre1_mod0_post0
#>  6  20.6  18.1     6     3 pre1_mod0_post0
#>  7  13.5  14.3     7     3 pre1_mod0_post0
#>  8  19.2  24.4     8     3 pre1_mod0_post0
#>  9  34.8  22.8     9     3 pre1_mod0_post0
#> 10  16.6  19.2    10     3 pre1_mod0_post0
#> # ℹ 22 more rows

collect_extracts(resampled)
#> # A tibble: 24 × 5
#>    id      id2      df .extracts .config        
#>    <chr>   <chr> <int> <list>    <chr>          
#>  1 Repeat1 Fold1     3 <lm>      pre1_mod0_post0
#>  2 Repeat1 Fold1     4 <lm>      pre2_mod0_post0
#>  3 Repeat1 Fold1     5 <lm>      pre3_mod0_post0
#>  4 Repeat1 Fold1     6 <lm>      pre4_mod0_post0
#>  5 Repeat1 Fold2     3 <lm>      pre1_mod0_post0
#>  6 Repeat1 Fold2     4 <lm>      pre2_mod0_post0
#>  7 Repeat1 Fold2     5 <lm>      pre3_mod0_post0
#>  8 Repeat1 Fold2     6 <lm>      pre4_mod0_post0
#>  9 Repeat2 Fold1     3 <lm>      pre1_mod0_post0
#> 10 Repeat2 Fold1     4 <lm>      pre2_mod0_post0
#> # ℹ 14 more rows
```
