…
#>    <list>           <chr>  <list>            <list>          
#>  1 <split [1976/0]> Fold01 <tibble [20 × 9]> <tibble [0 × 4]>
#>  2 <split [1976/0]> Fold02 <tibble [20 × 9]> <tibble [0 × 4]>
#>  3 <split [1976/0]> Fold03 <tibble [20 × 9]> <tibble [0 × 4]>
#>  4 <split [1976/0]> Fold04 <tibble [20 × 9]> <tibble [0 × 4]>
#>  5 <split [1977/0]> Fold05 <tibble [20 × 9]> <tibble [0 × 4]>
#>  6 <split [1977/0]> Fold06 <tibble [20 × 9]> <tibble [0 × 4]>
#>  7 <split [1978/0]> Fold07 <tibble [20 × 9]> <tibble [0 × 4]>
#>  8 <split [1978/0]> Fold08 <tibble [20 × 9]> <tibble [0 × 4]>
#>  9 <split [1979/0]> Fold09 <tibble [20 × 9]> <tibble [0 × 4]>
#> 10 <split [1980/0]> Fold10 <tibble [20 × 9]> <tibble [0 × 4]>
ames_iter_search
#> # Tuning results
#> # 10-fold cross-validation using stratification 
#> # A tibble: 110 × 5
#>    splits           id     .metrics          .notes           .iter
#>    <list>           <chr>  <list>            <list>           <int>
#>  1 <split [1976/0]> Fold01 <tibble [20 × 9]> <tibble [0 × 4]>     0
#>  2 <split [1976/0]> Fold02 <tibble [20 × 9]> <tibble [0 × 4]>     0
#>  3 <split [1976/0]> Fold03 <tibble [20 × 9]> <tibble [0 × 4]>     0
#>  4 <split [1976/0]> Fold04 <tibble [20 × 9]> <tibble [0 × 4]>     0
#>  5 <split [1977/0]> Fold05 <tibble [20 × 9]> <tibble [0 × 4]>     0
#>  6 <split [1977/0]> Fold06 <tibble [20 × 9]> <tibble [0 × 4]>     0
#>  7 <split [1978/0]> Fold07 <tibble [20 × 9]> <tibble [0 × 4]>     0
#>  8 <split [1978/0]> Fold08 <tibble [20 × 9]> <tibble [0 × 4]>     0
#>  9 <split [1979/0]> Fold09 <tibble [20 × 9]> <tibble [0 × 4]>     0
#> 10 <split [1980/0]> Fold10 <tibble [20 × 9]> <tibble [0 × 4]>     0
#> # ℹ 100 more rows
```
