Example Analysis of Ames Housing Data — example_ames_knn • tune
…
#>    <list>           <chr>  <list>            <list>          
#>  1 <split [1978/0]> Fold01 <tibble [20 × 9]> <tibble [0 × 1]>
#>  2 <split [1979/0]> Fold02 <tibble [20 × 9]> <tibble [0 × 1]>
#>  3 <split [1979/0]> Fold03 <tibble [20 × 9]> <tibble [0 × 1]>
#>  4 <split [1979/0]> Fold04 <tibble [20 × 9]> <tibble [0 × 1]>
#>  5 <split [1979/0]> Fold05 <tibble [20 × 9]> <tibble [0 × 1]>
#>  6 <split [1979/1]> Fold06 <tibble [20 × 9]> <tibble [0 × 1]>
#>  7 <split [1979/1]> Fold07 <tibble [20 × 9]> <tibble [0 × 1]>
#>  8 <split [1979/0]> Fold08 <tibble [20 × 9]> <tibble [0 × 1]>
#>  9 <split [1979/0]> Fold09 <tibble [20 × 9]> <tibble [0 × 1]>
#> 10 <split [1981/0]> Fold10 <tibble [20 × 9]> <tibble [0 × 1]>
ames_iter_search
#> # Tuning results
#> # 10-fold cross-validation using stratification 
#> # A tibble: 110 × 5
#>    splits           id     .metrics          .notes           .iter
#>    <list>           <chr>  <list>            <list>           <int>
#>  1 <split [1978/0]> Fold01 <tibble [20 × 9]> <tibble [0 × 1]>     0
#>  2 <split [1979/0]> Fold02 <tibble [20 × 9]> <tibble [0 × 1]>     0
#>  3 <split [1979/0]> Fold03 <tibble [20 × 9]> <tibble [0 × 1]>     0
#>  4 <split [1979/0]> Fold04 <tibble [20 × 9]> <tibble [0 × 1]>     0
#>  5 <split [1979/0]> Fold05 <tibble [20 × 9]> <tibble [0 × 1]>     0
#>  6 <split [1979/1]> Fold06 <tibble [20 × 9]> <tibble [0 × 1]>     0
#>  7 <split [1979/1]> Fold07 <tibble [20 × 9]> <tibble [0 × 1]>     0
#>  8 <split [1979/0]> Fold08 <tibble [20 × 9]> <tibble [0 × 1]>     0
#>  9 <split [1979/0]> Fold09 <tibble [20 × 9]> <tibble [0 × 1]>     0
#> 10 <split [1981/0]> Fold10 <tibble [20 × 9]> <tibble [0 × 1]>     0
#> # … with 100 more rows
…
