…
# The mold is returned from `hardhat::mold()`, and contains the
# predictors, outcomes, and information about the preprocessing
# for use on new data at `predict()` time.
extract_mold(spline_res)
#> $predictors
#> # A tibble: 24 × 19
#>      cyl    hp  drat    wt  qsec    vs    am  gear  carb   disp_01
#>    <dbl> <dbl> <dbl> <dbl> <dbl> <dbl> <dbl> <dbl> <dbl>     <dbl>
#>  1     8   205  2.93  5.25  18.0     0     0     3     4 0        
#>  2     4    95  3.92  3.15  22.9     1     0     4     2 0.00304  
#>  3     6   175  3.62  2.77  15.5     0     1     5     6 0.0000580
#>  4     8   245  3.73  3.84  15.4     0     0     3     4 0        
#>  5     4    52  4.93  1.62  18.5     1     1     4     2 0.110    
#>  6     8   180  3.07  3.78  18       0     0     3     3 0        
#>  7     8   215  3     5.42  17.8     0     0     3     4 0        
#>  8     8   175  3.15  3.44  17.0     0     0     3     2 0        
#>  9     8   180  3.07  4.07  17.4     0     0     3     3 0        
#> 10     6   110  3.9   2.88  17.0     0     1     4     4 0        
#> # ℹ 14 more rows
#> # ℹ 9 more variables: disp_02 <dbl>, disp_03 <dbl>, disp_04 <dbl>,
#> #   disp_05 <dbl>, disp_06 <dbl>, disp_07 <dbl>, disp_08 <dbl>,
#> #   disp_09 <dbl>, disp_10 <dbl>
#> 
#> $outcomes
#> # A tibble: 24 × 1
#>      mpg
#>    <dbl>
#>  1  10.4
#>  2  22.8
#>  3  19.7
#>  4  13.3
#>  5  30.4
#>  6  15.2
#>  7  10.4
#>  8  18.7
#>  9  16.4
#> 10  21  
#> # ℹ 14 more rows
…
