Remove some tuning parameter results — filter_parameters • tune
…
## -----------------------------------------------------------------------------
# Keep only the results from the numerically best combination

ames_iter_search %>%
  collect_metrics()
#> # A tibble: 40 × 12
#>        K weight_func dist_power   lon   lat .metric .estimator   mean
#>    <int> <chr>            <dbl> <int> <int> <chr>   <chr>       <dbl>
#>  1    35 optimal          1.32      8     1 rmse    standard   0.0785
#>  2    35 optimal          1.32      8     1 rsq     standard   0.823 
#>  3    35 rank             1.29      3    13 rmse    standard   0.0809
#>  4    35 rank             1.29      3    13 rsq     standard   0.814 
#>  5    21 cos              0.626     1     4 rmse    standard   0.0746
#>  6    21 cos              0.626     1     4 rsq     standard   0.836 
#>  7     4 biweight         0.311     8     4 rmse    standard   0.0777
#>  8     4 biweight         0.311     8     4 rsq     standard   0.814 
#>  9    32 triangular       0.165     9    15 rmse    standard   0.0770
#> 10    32 triangular       0.165     9    15 rsq     standard   0.826 
#> # ℹ 30 more rows
#> # ℹ 4 more variables: n <int>, std_err <dbl>, .config <chr>,
#> #   .iter <int>
…
