…
## -----------------------------------------------------------------------------
# Keep only the results from the numerically best combination

ames_iter_search |>
  collect_metrics()
#> # A tibble: 40 × 12
#>        K weight_func  dist_power   lon   lat .metric .estimator   mean
#>    <int> <chr>             <dbl> <int> <int> <chr>   <chr>       <dbl>
#>  1    21 triweight         0.626     1     4 rmse    standard   0.0729
#>  2    21 triweight         0.626     1     4 rsq     standard   0.833 
#>  3     5 gaussian          0.411     2     7 rmse    standard   0.0742
#>  4     5 gaussian          0.411     2     7 rsq     standard   0.826 
#>  5    35 gaussian          1.29      3    13 rmse    standard   0.0791
#>  6    35 gaussian          1.29      3    13 rsq     standard   0.814 
#>  7    12 epanechnikov      1.53      4     7 rmse    standard   0.0762
#>  8    12 epanechnikov      1.53      4     7 rsq     standard   0.817 
#>  9    35 rank              1.32      8     1 rmse    standard   0.0791
#> 10    35 rank              1.32      8     1 rsq     standard   0.813 
#> # ℹ 30 more rows
#> # ℹ 4 more variables: n <int>, std_err <dbl>, .config <chr>,
#> #   .iter <int>
…
