Fit a model to the numerically optimal configuration — fit_best • tune
…
ctrl <- control_grid(save_workflow = TRUE)

set.seed(128)
knn_pca_res <-
  tune_grid(knn_mod, pca_rec, resamples = meat_rs, grid = 10, control = ctrl)

knn_fit <- fit_best(knn_pca_res, verbose = TRUE)
#> Using rmse as the metric, the optimal parameters were:
#>   neighbors: 7
#>   num_comp:  4
#> 
#> ℹ Fitting using 161 data points...
#> ✔ Done.
predict(knn_fit, meat_test)
#> # A tibble: 54 × 1
#>    .pred
#>    <dbl>
#>  1  19.7
#>  2  20.1
#>  3  15.3
#>  4  13.3
#>  5  19.5
#>  6  21.1
#>  7  19.9
#>  8  18.7
#>  9  19.6
#> 10  17.9
#> # ℹ 44 more rows
…
