Classification Example • tune
…
    svm_wflow, 
    rs = folds,
    # To use non-default parameter ranges
    param_info = svm_set,
    # Generate five at semi-random to start
    initial = 5,
    iter = 50,
    # How to measure performance
    perf = metric_set(kap),
    # Acquisition function
    objective = exp_improve(),
    control = Bayes_control(random_value = Inf)
  )
search_res
#> # A tibble: 55 x 9
#>       cost rbf_sigma num_comp .metric .estimator  mean     n std_err .iter
#>      <dbl>     <dbl>    <int> <chr>   <chr>      <dbl> <int>   <dbl> <dbl>
#>  1 0.00206  3.96e- 6       12 kap     binary     0.537    10  0.0277     0
#>  2 0.0108   2.62e- 3       18 kap     binary     0.526    10  0.0310     0
#>  3 0.0147   7.65e- 7       12 kap     binary     0.537    10  0.0277     0
#>  4 0.0747   5.44e-10        9 kap     binary     0.244    10  0.0492     0
#>  5 0.166    9.59e- 1        2 kap     binary     0.438    10  0.0350     0
#>  6 0.0234   6.90e- 2       11 kap     binary     0.556    10  0.0373     1
#>  7 0.00153  6.61e- 7        1 kap     binary     0.294    10  0.0229     2
#>  8 0.246    1.88e- 3       17 kap     binary     0.539    10  0.0334     3
#>  9 0.00445  1.76e- 4        8 kap     binary     0.533    10  0.0265     4
#> 10 0.0570   2.91e- 1       20 kap     binary     0.383    10  0.0362     5
#> # … with 45 more rows
…
