Optimizations and parallel processing • tune
…
knn_mod <- 
  nearest_neighbor(neighbors = tune(), weight_func = tune()) |> 
  set_engine("kknn") |> 
  set_mode("regression")

With the following grid:

grid <- 
  parameters(num_terms(c(1, 9)), neighbors(), weight_func()) |> 
  grid_regular(levels = c(5, 10, 7)) |> 
  arrange(num_terms, neighbors, weight_func)
grid 

## # A tibble: 350 × 3
##    num_terms neighbors weight_func 
##        <int>     <int> <chr>       
##  1         1         1 biweight    
##  2         1         1 cos         
##  3         1         1 epanechnikov
##  4         1         1 inv         
##  5         1         1 rectangular 
##  6         1         1 triangular  
##  7         1         1 triweight   
##  8         1         2 biweight    
##  9         1         2 cos         
## 10         1         2 epanechnikov
## # ℹ 340 more rows
…
When parallel_over = "resamples", the default, only 5
recipes are prepared and, within each, all of the appropriate models are
fit from the same recipe. In this example, once the recipe with
num_terms = 1 is created, the model parameters are
iteratively tuned:

## # A tibble: 70 × 2
##    neighbors weight_func 
##        <int> <chr>       
##  1         1 biweight    
##  2         1 cos         
##  3         1 epanechnikov
##  4         1 inv         
##  5         1 rectangular 
##  6         1 triangular  
##  7         1 triweight   
##  8         2 biweight    
##  9         2 cos         
## 10         2 epanechnikov
## # ℹ 60 more rows
…
