Getting Started with tune • tune
…
The .metrics column has all of the holdout performance estimates2 for each parameter combination:

ames_res$.metrics[[1]]
#> # A tibble: 162 x 5
#>    `long df` `lat df` .metric .estimator .estimate
#>        <dbl>    <dbl> <chr>   <chr>          <dbl>
#>  1         2        2 rmse    standard       0.150
#>  2         2        2 rsq     standard       0.362
#>  3         4        2 rmse    standard       0.150
#>  4         4        2 rsq     standard       0.360
#>  5         6        2 rmse    standard       0.146
#>  6         6        2 rsq     standard       0.395
#>  7         8        2 rmse    standard       0.145
#>  8         8        2 rsq     standard       0.399
#>  9        10        2 rmse    standard       0.144
#> 10        10        2 rsq     standard       0.406
#> # … with 152 more rows

To get the average metric value for each parameter combination, summarize() can be put to use:

estimates <- summarize(ames_res)
estimates
#> # A tibble: 162 x 7
#>    `long df` `lat df` .metric .estimator  mean     n std_err
#>        <dbl>    <dbl> <chr>   <chr>      <dbl> <int>   <dbl>
#>  1         2        2 rmse    standard   0.144    10 0.00221
#>  2         2        2 rsq     standard   0.351    10 0.0158 
#>  3         2        4 rmse    standard   0.143    10 0.00233
#>  4         2        4 rsq     standard   0.356    10 0.0156 
#>  5         2        6 rmse    standard   0.143    10 0.00221
#>  6         2        6 rsq     standard   0.363    10 0.0161 
#>  7         2        8 rmse    standard   0.136    10 0.00246
#>  8         2        8 rsq     standard   0.422    10 0.0164 
#>  9         2       10 rmse    standard   0.136    10 0.00244
#> 10         2       10 rsq     standard   0.419    10 0.0160 
#> # … with 152 more rows

The values in the mean column are the averages of the 10 resamples. The best RMSE values corresponded to:

rmse_vals <- 
  estimates %>% 
  dplyr::filter(.metric == "rmse") %>% 
  arrange(mean)
rmse_vals
#> # A tibble: 81 x 7
#>    `long df` `lat df` .metric .estimator  mean     n std_err
#>        <dbl>    <dbl> <chr>   <chr>      <dbl> <int>   <dbl>
#>  1        16       16 rmse    standard   0.128    10 0.00244
#>  2        16       18 rmse    standard   0.128    10 0.00247
#>  3        16       12 rmse    standard   0.128    10 0.00235
#>  4        18       16 rmse    standard   0.128    10 0.00239
#>  5        18       18 rmse    standard   0.128    10 0.00242
#>  6        16       14 rmse    standard   0.128    10 0.00229
#>  7        18       12 rmse    standard   0.128    10 0.00231
#>  8        16        8 rmse    standard   0.129    10 0.00240
#>  9        12       16 rmse    standard   0.129    10 0.00253
#> 10        18       14 rmse    standard   0.129    10 0.00225
#> # … with 71 more rows
…
