Grid Search • tune
…
First, the formula interface will be used:

set.seed(35)
grid_form <-
  tune_grid(
    Class ~ .,
    model = svm_mod,
    resamples = iono_rs,
    metrics = roc_vals,
    control = ctrl
  )
grid_form

## # Bootstrap sampling 
## # A tibble: 30 x 4
##    splits            id          .metrics          .notes          
##    <list>            <chr>       <list>            <list>          
##  1 <split [351/120]> Bootstrap01 <tibble [10 × 3]> <tibble [0 × 1]>
##  2 <split [351/130]> Bootstrap02 <tibble [10 × 3]> <tibble [0 × 1]>
##  3 <split [351/137]> Bootstrap03 <tibble [10 × 3]> <tibble [0 × 1]>
##  4 <split [351/141]> Bootstrap04 <tibble [10 × 3]> <tibble [0 × 1]>
##  5 <split [351/131]> Bootstrap05 <tibble [10 × 3]> <tibble [0 × 1]>
##  6 <split [351/131]> Bootstrap06 <tibble [10 × 3]> <tibble [0 × 1]>
##  7 <split [351/127]> Bootstrap07 <tibble [10 × 3]> <tibble [0 × 1]>
##  8 <split [351/123]> Bootstrap08 <tibble [10 × 3]> <tibble [0 × 1]>
##  9 <split [351/131]> Bootstrap09 <tibble [10 × 3]> <tibble [0 × 1]>
## 10 <split [351/117]> Bootstrap10 <tibble [10 × 3]> <tibble [0 × 1]>
## # … with 20 more rows
…
The same syntax is used but a recipe is passed in the first argument:

set.seed(325)
rec_form <-
  tune_grid(
    iono_rec,
    model = svm_mod,
    resamples = iono_rs,
    metrics = roc_vals,
    control = ctrl
  )
rec_form

## # Bootstrap sampling 
## # A tibble: 30 x 4
##    splits            id          .metrics          .notes          
##    <list>            <chr>       <list>            <list>          
##  1 <split [351/120]> Bootstrap01 <tibble [10 × 5]> <tibble [0 × 1]>
##  2 <split [351/130]> Bootstrap02 <tibble [10 × 5]> <tibble [0 × 1]>
##  3 <split [351/137]> Bootstrap03 <tibble [10 × 5]> <tibble [0 × 1]>
##  4 <split [351/141]> Bootstrap04 <tibble [10 × 5]> <tibble [0 × 1]>
##  5 <split [351/131]> Bootstrap05 <tibble [10 × 5]> <tibble [0 × 1]>
##  6 <split [351/131]> Bootstrap06 <tibble [10 × 5]> <tibble [0 × 1]>
##  7 <split [351/127]> Bootstrap07 <tibble [10 × 5]> <tibble [0 × 1]>
##  8 <split [351/123]> Bootstrap08 <tibble [10 × 5]> <tibble [0 × 1]>
##  9 <split [351/131]> Bootstrap09 <tibble [10 × 5]> <tibble [0 × 1]>
## 10 <split [351/117]> Bootstrap10 <tibble [10 × 5]> <tibble [0 × 1]>
## # … with 20 more rows
…
