Obtain and format results produced by tuning — collect_predictions • tune
…
# Per-resample values
collect_metrics(ames_grid_search, summarize = FALSE)
#> # A tibble: 200 x 9
#>    id         K weight_func dist_power   lon   lat .metric .estimator .estimate
#>    <chr>  <int> <chr>            <dbl> <int> <int> <chr>   <chr>          <dbl>
#>  1 Fold01    35 rank             1.32      9     3 rmse    standard      0.0885
#>  2 Fold01    35 rank             1.32      9     3 rsq     standard      0.808 
#>  3 Fold01    35 gaussian         1.29      5    14 rmse    standard      0.0887
#>  4 Fold01    35 gaussian         1.29      5    14 rsq     standard      0.806 
#>  5 Fold01    21 triweight        0.626     3     6 rmse    standard      0.0811
#>  6 Fold01    21 triweight        0.626     3     6 rsq     standard      0.817 
#>  7 Fold01     4 biweight         0.311     9     6 rmse    standard      0.0892
#>  8 Fold01     4 biweight         0.311     9     6 rsq     standard      0.775 
#>  9 Fold01     3 gaussian         1.86     10    15 rmse    standard      0.0891
#> 10 Fold01     3 gaussian         1.86     10    15 rsq     standard      0.776 
#> # … with 190 more rows
…
